cache_waves.vcd
$date
	Sun Jul 19 11:58:50 2026
$end
$version
	Icarus Verilog
$end
$timescale
	1ps
$end
$scope module tb_cache $end
$var wire 1 ! mem_wen $end
$var wire 128 " mem_wdata [127:0] $end
$var wire 1 # mem_ren $end
$var wire 32 $ mem_addr [31:0] $end
$var wire 1 % cpu_stall $end
$var wire 32 & cpu_rdata [31:0] $end
$var reg 1 ' clk $end
$var reg 32 ( cpu_addr [31:0] $end
$var reg 1 ) cpu_ren $end
$var reg 32 * cpu_wdata [31:0] $end
$var reg 1 + cpu_wen $end
$var reg 128 , mem_rdata [127:0] $end
$var reg 1 - mem_ready $end
$var reg 6 . rand_idx [5:0] $end
$var reg 22 / rand_tag [21:0] $end
$var reg 1 0 rst_n $end
$var integer 32 1 i [31:0] $end
$var integer 32 2 mem_wait_ctr [31:0] $end
$var integer 32 3 rw_roll [31:0] $end
$var integer 32 4 total_accesses [31:0] $end
$var integer 32 5 total_hits [31:0] $end
$scope module dut $end
$var wire 1 6 cache_hit $end
$var wire 1 7 clear_dirty_way0 $end
$var wire 1 8 clear_dirty_way1 $end
$var wire 1 ' clk $end
$var wire 32 9 cpu_addr [31:0] $end
$var wire 1 ) cpu_ren $end
$var wire 32 : cpu_wdata [31:0] $end
$var wire 1 + cpu_wen $end
$var wire 1 ; hit_way0 $end
$var wire 1 < hit_way1 $end
$var wire 128 = mem_rdata [127:0] $end
$var wire 1 - mem_ready $end
$var wire 128 > mem_wdata [127:0] $end
$var wire 1 0 rst_n $end
$var wire 1 ? set_dirty_way0 $end
$var wire 1 @ set_dirty_way1 $end
$var wire 1 A update_lru $end
$var wire 1 B wen_way0 $end
$var wire 1 C wen_way1 $end
$var wire 1 D valid_way1 $end
$var wire 1 E valid_way0 $end
$var wire 22 F tag [21:0] $end
$var wire 22 G rtag_way1 [21:0] $end
$var wire 22 H rtag_way0 [21:0] $end
$var wire 128 I rdata_way1 [127:0] $end
$var wire 128 J rdata_way0 [127:0] $end
$var wire 4 K offset [3:0] $end
$var wire 1 ! mem_wen $end
$var wire 1 # mem_ren $end
$var wire 32 L mem_addr [31:0] $end
$var wire 1 M lru_way $end
$var wire 6 N index [5:0] $end
$var wire 128 O hit_data [127:0] $end
$var wire 22 P evict_tag [21:0] $end
$var wire 1 Q evict_dirty $end
$var wire 128 R evict_data [127:0] $end
$var wire 1 S dirty_way1 $end
$var wire 1 T dirty_way0 $end
$var wire 1 % cpu_stall $end
$var wire 32 U cpu_rdata [31:0] $end
$var wire 1 V accessed_way $end
$var parameter 32 W ADDR_WIDTH $end
$var parameter 32 X CPU_DATA_WIDTH $end
$var parameter 32 Y MEM_DATA_WIDTH $end
$var reg 2 Z next_state [1:0] $end
$var reg 2 [ state [1:0] $end
$scope module my_data_array $end
$var wire 1 ' clk $end
$var wire 6 \ index [5:0] $end
$var wire 128 ] rdata_way0 [127:0] $end
$var wire 128 ^ rdata_way1 [127:0] $end
$var wire 128 _ wdata [127:0] $end
$var wire 1 B wen_way0 $end
$var wire 1 C wen_way1 $end
$var parameter 32 ` DATA_WIDTH $end
$var parameter 32 a DEPTH $end
$var parameter 32 b INDEX_WIDTH $end
$upscope $end
$scope module my_tag_array $end
$var wire 1 V accessed_way $end
$var wire 1 7 clear_dirty_way0 $end
$var wire 1 8 clear_dirty_way1 $end
$var wire 1 ' clk $end
$var wire 1 T dirty_way0 $end
$var wire 1 S dirty_way1 $end
$var wire 6 c index [5:0] $end
$var wire 1 M lru_way $end
$var wire 22 d rtag_way0 [21:0] $end
$var wire 22 e rtag_way1 [21:0] $end
$var wire 1 ? set_dirty_way0 $end
$var wire 1 @ set_dirty_way1 $end
$var wire 1 A update_lru $end
$var wire 1 E valid_way0 $end
$var wire 1 D valid_way1 $end
$var wire 1 B wen_way0 $end
$var wire 1 C wen_way1 $end
$var wire 22 f wtag [21:0] $end
$scope begin $ivl_for_loop0 $end
$var integer 32 g i [31:0] $end
$upscope $end
$upscope $end
$upscope $end
$upscope $end
$enddefinitions $end
$comment Show the parameter values. $end
$dumpall
b110 b
b1000000 a
b10000000 `
b10000000 Y
b100000 X
b100000 W
$end
#0
$dumpvars
b1000000 g
bx f
bx e
bx d
bx c
bx _
bx ^
bx ]
bx \
b0 [
b0 Z
xV
bx U
xT
xS
bx R
xQ
bx P
bx O
bx N
xM
bx0000 L
bx K
bx J
bx I
bx H
bx G
bx F
xE
xD
0C
0B
0A
0@
0?
bx >
bx =
x<
x;
bx :
bx 9
08
07
x6
b0 5
b0 4
b0 3
b0 2
bx 1
00
bx /
bx .
x-
bx ,
0+
bx *
0)
bx (
0'
bx &
0%
bx0000 $
0#
bx "
0!
$end
#5000
0-
1'
#10000
0'
#15000
1'
10
#20000
0'
#25000
06
b110000010000 $
b110000010000 L
0;
0<
0V
0Q
b0 P
b0 H
b0 d
0E
0T
b0 G
b0 e
0D
0S
0M
b1 Z
b11 F
b11 f
b1 N
b1 \
b1 c
b0 K
1)
b10100 3
b100100001001101011000001001 *
b100100001001101011000001001 :
b110000010000 (
b110000010000 9
1'
b1 .
b11 /
b0 1
#30000
0'
#35000
1%
b1 [
b11 Z
b11 .
b1 1
b1 5
b1 4
0)
1'
#40000
0'
#45000
1#
b11 [
b110000110000 $
b110000110000 L
b11 Z
b11 N
b11 \
b11 c
1)
b100 3
b110010110000101000010001100101 *
b110010110000101000010001100101 :
b110000110000 (
b110000110000 9
1'
#50000
0'
#55000
b1 2
b10 4
0)
1'
#60000
0'
#65000
b10 2
1'
#70000
0'
#75000
b11 2
1'
#80000
0'
#85000
b100 2
1'
#90000
0'
#95000
1B
1A
b1 Z
b11011110101011011011111011101111110111101010110110111110111011111101111010101101101111101110111111011110101011011011111011101111 ,
b11011110101011011011111011101111110111101010110110111110111011111101111010101101101111101110111111011110101011011011111011101111 =
b11011110101011011011111011101111110111101010110110111110111011111101111010101101101111101110111111011110101011011011111011101111 _
b0 2
1-
1'
#100000
0'
#105000
0%
16
1A
1;
0V
0B
b11011110101011011011111011101111 &
b11011110101011011011111011101111 U
b11011110101011011011111011101111110111101010110110111110111011111101111010101101101111101110111111011110101011011011111011101111 O
b0 Z
1E
b11 H
b11 d
1M
b11011110101011011011111011101111110111101010110110111110111011111101111010101101101111101110111111011110101011011011111011101111 J
b11011110101011011011111011101111110111101010110110111110111011111101111010101101101111101110111111011110101011011011111011101111 ]
0-
0#
b1 [
1'
#110000
0'
#115000
0A
1V
b0 [
b10 .
b10 1
1'
#120000
0'
#125000
06
b110000100000 $
b110000100000 L
bx &
bx U
bx O
0;
0V
bx J
bx ]
b0 H
b0 d
0E
0M
b1 Z
b10 N
b10 \
b10 c
1)
b111110 3
b10111011001000111111000101110110 *
b10111011001000111111000101110110 :
b110000100000 (
b110000100000 9
1'
#130000
0'
#135000
1%
b1 [
b11 Z
b11 .
b100 /
b11 1
b10 5
b11 4
0)
1'
#140000
0'
#145000
1#
b11 [
b1000000110000 $
b1000000110000 L
b11011110101011011011111011101111 &
b11011110101011011011111011101111 U
b11011110101011011011111011101111110111101010110110111110111011111101111010101101101111101110111111011110101011011011111011101111 O
1V
b11011110101011011011111011101111110111101010110110111110111011111101111010101101101111101110111111011110101011011011111011101111 J
b11011110101011011011111011101111110111101010110110111110111011111101111010101101101111101110111111011110101011011011111011101111 ]
b11 H
b11 d
1E
1M
b11 Z
b100 F
b100 f
b11 N
b11 \
b11 c
1)
b100111 3
b11111100111111011110100111111001 *
b11111100111111011110100111111001 :
b1000000110000 (
b1000000110000 9
1'
#150000
0'
#155000
b1 2
b100 4
0)
1'
#160000
0'
#165000
b10 2
1'
#170000
0'
#175000
b11 2
1'
#180000
0'
#185000
b100 2
1'
#190000
0'
#195000
1C
1A
b1 Z
b0 2
1-
1'
#200000
0'
#205000
0%
16
1A
1<
1V
b11 P
0C
b11011110101011011011111011101111110111101010110110111110111011111101111010101101101111101110111111011110101011011011111011101111 "
b11011110101011011011111011101111110111101010110110111110111011111101111010101101101111101110111111011110101011011011111011101111 >
b11011110101011011011111011101111110111101010110110111110111011111101111010101101101111101110111111011110101011011011111011101111 R
b0 Z
1D
b100 G
b100 e
0M
b11011110101011011011111011101111110111101010110110111110111011111101111010101101101111101110111111011110101011011011111011101111 I
b11011110101011011011111011101111110111101010110110111110111011111101111010101101101111101110111111011110101011011011111011101111 ^
0-
0#
b1 [
1'
#210000
0'
#215000
0A
0V
b0 [
b1 .
b10 /
b100 1
1'
#220000
0'
#225000
06
b100000010000 $
b100000010000 L
bx "
bx >
bx R
bx &
bx U
bx O
b0 P
0<
bx J
bx ]
bx I
bx ^
b0 H
b0 d
0E
b0 G
b0 e
0D
b1 Z
b10 F
b10 f
b1 N
b1 \
b1 c
1)
b11000 3
b11110010101011111111011111100101 *
b11110010101011111111011111100101 :
b100000010000 (
b100000010000 9
1'
#230000
0'
#235000
1%
b1 [
b11 Z
b11 .
b1 /
b101 1
b11 5
b101 4
0)
1'
#240000
0'
#245000
1#
b11 [
b10000110000 $
b10000110000 L
b11011110101011011011111011101111110111101010110110111110111011111101111010101101101111101110111111011110101011011011111011101111 "
b11011110101011011011111011101111110111101010110110111110111011111101111010101101101111101110111111011110101011011011111011101111 >
b11011110101011011011111011101111110111101010110110111110111011111101111010101101101111101110111111011110101011011011111011101111 R
b11011110101011011011111011101111 &
b11011110101011011011111011101111 U
b11011110101011011011111011101111110111101010110110111110111011111101111010101101101111101110111111011110101011011011111011101111 O
b11 P
b11011110101011011011111011101111110111101010110110111110111011111101111010101101101111101110111111011110101011011011111011101111 J
b11011110101011011011111011101111110111101010110110111110111011111101111010101101101111101110111111011110101011011011111011101111 ]
b11011110101011011011111011101111110111101010110110111110111011111101111010101101101111101110111111011110101011011011111011101111 I
b11011110101011011011111011101111110111101010110110111110111011111101111010101101101111101110111111011110101011011011111011101111 ^
b11 H
b11 d
1E
b100 G
b100 e
1D
b11 Z
b1 F
b1 f
b11 N
b11 \
b11 c
1)
b101001 3
b11111001001100000110100111110010 *
b11111001001100000110100111110010 :
b10000110000 (
b10000110000 9
1'
#250000
0'
#255000
b1 2
b110 4
0)
1'
#260000
0'
#265000
b10 2
1'
#270000
0'
#275000
b11 2
1'
#280000
0'
#285000
b100 2
1'
#290000
0'
#295000
1B
1A
b1 Z
b0 2
1-
1'
#300000
0'
#305000
0%
16
1A
1;
0V
0B
b100 P
b0 Z
b1 H
b1 d
1M
0-
0#
b1 [
1'
#310000
0'
#315000
0A
1V
b0 [
b1 .
b10 /
b110 1
1'
#320000
0'
#325000
06
b100000010000 $
b100000010000 L
bx &
bx U
bx O
0V
bx "
bx >
bx R
b0 P
0;
bx J
bx ]
bx I
bx ^
b0 H
b0 d
0E
b0 G
b0 e
0D
0M
b1 Z
b10 F
b10 f
b1 N
b1 \
b1 c
1)
b100101 3
b10101110010110000100100101011100 *
b10101110010110000100100101011100 :
b100000010000 (
b100000010000 9
1'
#330000
0'
#335000
1%
b1 [
b11 Z
b0 .
b1 /
b111 1
b100 5
b111 4
0)
1'
#340000
0'
#345000
1#
b11 [
b10000000000 $
b10000000000 L
b11 Z
b1 F
b1 f
b0 N
b0 \
b0 c
1)
b110101 3
b110001111011110110001001100011 *
b110001111011110110001001100011 :
b10000000000 (
b10000000000 9
1'
#350000
0'
#355000
b1 2
b1000 4
0)
1'
#360000
0'
#365000
b10 2
1'
#370000
0'
#375000
b11 2
1'
#380000
0'
#385000
b100 2
1'
#390000
0'
#395000
1B
1A
b1 Z
b0 2
1-
1'
#400000
0'
#405000
0%
16
1A
1;
0V
0B
b11011110101011011011111011101111 &
b11011110101011011011111011101111 U
b11011110101011011011111011101111110111101010110110111110111011111101111010101101101111101110111111011110101011011011111011101111 O
b0 Z
1E
b1 H
b1 d
1M
b11011110101011011011111011101111110111101010110110111110111011111101111010101101101111101110111111011110101011011011111011101111 J
b11011110101011011011111011101111110111101010110110111110111011111101111010101101101111101110111111011110101011011011111011101111 ]
0-
0#
b1 [
1'
#410000
0'
#415000
0A
1V
b0 [
b10 .
b10 /
b1000 1
1'
#420000
0'
#425000
06
b100000100000 $
b100000100000 L
bx &
bx U
bx O
0V
0;
bx J
bx ]
b0 H
b0 d
0E
0M
b1 Z
b10 F
b10 f
b10 N
b10 \
b10 c
1)
b11111 3
b11010101011110000100010110101010 *
b11010101011110000100010110101010 :
b100000100000 (
b100000100000 9
1'
#430000
0'
#435000
1%
b1 [
b11 Z
b0 .
b1001 1
b101 5
b1001 4
0)
1'
#440000
0'
#445000
1#
b11 [
b100000000000 $
b100000000000 L
b11011110101011011011111011101111 &
b11011110101011011011111011101111 U
b11011110101011011011111011101111110111101010110110111110111011111101111010101101101111101110111111011110101011011011111011101111 O
1V
b11011110101011011011111011101111110111101010110110111110111011111101111010101101101111101110111111011110101011011011111011101111 J
b11011110101011011011111011101111110111101010110110111110111011111101111010101101101111101110111111011110101011011011111011101111 ]
b1 H
b1 d
1E
1M
b11 Z
b0 N
b0 \
b0 c
1)
b10001 3
b110101111000011100000001101 *
b110101111000011100000001101 :
b100000000000 (
b100000000000 9
1'
#450000
0'
#455000
b1 2
b1010 4
0)
1'
#460000
0'
#465000
b10 2
1'
#470000
0'
#475000
b11 2
1'
#480000
0'
#485000
b100 2
1'
#490000
0'
#495000
1C
1A
b1 Z
b0 2
1-
1'
#500000
0'
#505000
0%
16
1A
1<
1V
b1 P
0C
b11011110101011011011111011101111110111101010110110111110111011111101111010101101101111101110111111011110101011011011111011101111 "
b11011110101011011011111011101111110111101010110110111110111011111101111010101101101111101110111111011110101011011011111011101111 >
b11011110101011011011111011101111110111101010110110111110111011111101111010101101101111101110111111011110101011011011111011101111 R
b0 Z
1D
b10 G
b10 e
0M
b11011110101011011011111011101111110111101010110110111110111011111101111010101101101111101110111111011110101011011011111011101111 I
b11011110101011011011111011101111110111101010110110111110111011111101111010101101101111101110111111011110101011011011111011101111 ^
0-
0#
b1 [
1'
#510000
0'
#515000
0A
0V
b0 [
b1 .
b11 /
b1010 1
1'
#520000
0'
#525000
06
b110000010000 $
b110000010000 L
bx "
bx >
bx R
bx &
bx U
bx O
b0 P
0<
bx J
bx ]
bx I
bx ^
b0 H
b0 d
0E
b0 G
b0 e
0D
b1 Z
b11 F
b11 f
b1 N
b1 \
b1 c
1)
b100011 3
b1000101110100101000000010 *
b1000101110100101000000010 :
b110000010000 (
b110000010000 9
1'
#530000
0'
#535000
1%
b1 [
b11 Z
b1011 1
b110 5
b1011 4
0)
1'
#540000
0'
#545000
1#
b11 [
b11 Z
1)
b110100 3
b10010001100001000100100100100011 *
b10010001100001000100100100100011 :
1'
#550000
0'
#555000
b1 2
b1100 4
0)
1'
#560000
0'
#565000
b10 2
1'
#570000
0'
#575000
b11 2
1'
#580000
0'
#585000
b100 2
1'
#590000
0'
#595000
1B
1A
b1 Z
b0 2
1-
1'
#600000
0'
#605000
0%
16
1A
1;
0V
0B
b11011110101011011011111011101111 &
b11011110101011011011111011101111 U
b11011110101011011011111011101111110111101010110110111110111011111101111010101101101111101110111111011110101011011011111011101111 O
b0 Z
1E
b11 H
b11 d
1M
b11011110101011011011111011101111110111101010110110111110111011111101111010101101101111101110111111011110101011011011111011101111 J
b11011110101011011011111011101111110111101010110110111110111011111101111010101101101111101110111111011110101011011011111011101111 ]
0-
0#
b1 [
1'
#610000
0'
#615000
0A
1V
b0 [
b0 .
b10 /
b1100 1
1'
#620000
0'
#625000
b100000000000 $
b100000000000 L
1<
0V
b11011110101011011011111011101111110111101010110110111110111011111101111010101101101111101110111111011110101011011011111011101111 "
b11011110101011011011111011101111110111101010110110111110111011111101111010101101101111101110111111011110101011011011111011101111 >
b11011110101011011011111011101111110111101010110110111110111011111101111010101101101111101110111111011110101011011011111011101111 R
b1 P
0;
b11011110101011011011111011101111110111101010110110111110111011111101111010101101101111101110111111011110101011011011111011101111 I
b11011110101011011011111011101111110111101010110110111110111011111101111010101101101111101110111111011110101011011011111011101111 ^
b1 H
b1 d
b10 G
b10 e
1D
0M
b1 Z
b10 F
b10 f
b0 N
b0 \
b0 c
1+
b1001110 3
b11111001011010001011110111110010 *
b11111001011010001011110111110010 :
b100000000000 (
b100000000000 9
1'
#630000
0'
#635000
1A
1V
b1 [
b0 Z
b1 .
b11 /
b1101 1
b111 5
b1101 4
0+
1'
#640000
0'
#645000
0A
b0 [
1V
b110000010000 $
b110000010000 L
1;
bx "
bx >
bx R
b0 P
0<
bx I
bx ^
b11 H
b11 d
b0 G
b0 e
0D
1M
b1 Z
b11 F
b11 f
b1 N
b1 \
b1 c
1)
b11011 3
b10111100001000001111001101111000 *
b10111100001000001111001101111000 :
b110000010000 (
b110000010000 9
1'
#650000
0'
#655000
1A
0V
b1 [
b0 Z
b11 .
b100 /
b1110 1
b1000 5
b1110 4
0)
1'
#660000
0'
#665000
0A
b0 [
0@
1V
b1000000110000 $
b1000000110000 L
b11011110101011011011111011101111110111101010110110111110111011111101111010101101101111101110111111011110101011011011111011101111 "
b11011110101011011011111011101111110111101010110110111110111011111101111010101101101111101110111111011110101011011011111011101111 >
b11011110101011011011111011101111110111101010110110111110111011111101111010101101101111101110111111011110101011011011111011101111 R
b100 P
1<
0;
b11011110101011011011111011101111110111101010110110111110111011111101111010101101101111101110111111011110101011011011111011101111 I
b11011110101011011011111011101111110111101010110110111110111011111101111010101101101111101110111111011110101011011011111011101111 ^
b1 H
b1 d
b100 G
b100 e
1D
0?
b1 Z
b100 F
b100 f
b11 N
b11 \
b11 c
1+
b1010101 3
b11100011010010111111100111000110 *
b11100011010010111111100111000110 :
b1000000110000 (
b1000000110000 9
1'
#670000
0'
#675000
1A
b1 [
b0 Z
b10 .
b10 /
b1111 1
b1001 5
b1111 4
0+
1'
#680000
0'
#685000
b0 [
0%
0A
06
0V
b100000100000 $
b100000100000 L
bx &
bx U
bx O
bx "
bx >
bx R
b0 P
0<
bx J
bx ]
bx I
bx ^
b0 H
b0 d
0E
b0 G
b0 e
0D
0M
b1 Z
b10 F
b10 f
b10 N
b10 \
b10 c
1)
b10111 3
b101110101111001101000001011 *
b101110101111001101000001011 :
b100000100000 (
b100000100000 9
1'
#690000
0'
#695000
1%
b1 [
b11 Z
b100 /
b10000 1
b1010 5
b10000 4
0)
1'
#700000
0'
#705000
1#
b11 [
b1000000100000 $
b1000000100000 L
b11 Z
b100 F
b100 f
1)
b111110 3
b11101110011000110000000111011 *
b11101110011000110000000111011 :
b1000000100000 (
b1000000100000 9
1'
#710000
0'
#715000
b1 2
b10001 4
0)
1'
#720000
0'
#725000
b10 2
1'
#730000
0'
#735000
b11 2
1'
#740000
0'
#745000
b100 2
1'
#750000
0'
#755000
1B
1A
b1 Z
b0 2
1-
1'
#760000
0'
#765000
0%
16
1A
1;
0V
0B
b11011110101011011011111011101111 &
b11011110101011011011111011101111 U
b11011110101011011011111011101111110111101010110110111110111011111101111010101101101111101110111111011110101011011011111011101111 O
b0 Z
1E
b100 H
b100 d
1M
b11011110101011011011111011101111110111101010110110111110111011111101111010101101101111101110111111011110101011011011111011101111 J
b11011110101011011011111011101111110111101010110110111110111011111101111010101101101111101110111111011110101011011011111011101111 ]
0-
0#
b1 [
1'
#770000
0'
#775000
0A
1V
b0 [
b1 /
b10001 1
1'
#780000
0'
#785000
06
b10000100000 $
b10000100000 L
0;
b1 Z
b1 F
b1 f
1+
b1011101 3
b11111000110110011001101111110001 *
b11111000110110011001101111110001 :
b10000100000 (
b10000100000 9
1'
#790000
0'
#795000
1%
b1 [
b11 Z
b11 /
b10010 1
b1011 5
b10010 4
0+
1'
#800000
0'
#805000
1#
b11 [
b110000100000 $
b110000100000 L
b11 Z
b11 F
b11 f
1+
b1001111 3
b11001111101000010101010110011111 *
b11001111101000010101010110011111 :
b110000100000 (
b110000100000 9
1'
#810000
0'
#815000
b1 2
b10011 4
0+
1'
#820000
0'
#825000
b10 2
1'
#830000
0'
#835000
b11 2
1'
#840000
0'
#845000
b100 2
1'
#850000
0'
#855000
1C
1A
b1 Z
b0 2
1-
1'
#860000
0'
#865000
0%
16
1A
1<
1V
b100 P
0C
b11011110101011011011111011101111110111101010110110111110111011111101111010101101101111101110111111011110101011011011111011101111 "
b11011110101011011011111011101111110111101010110110111110111011111101111010101101101111101110111111011110101011011011111011101111 >
b11011110101011011011111011101111110111101010110110111110111011111101111010101101101111101110111111011110101011011011111011101111 R
b0 Z
1D
b11 G
b11 e
0M
b11011110101011011011111011101111110111101010110110111110111011111101111010101101101111101110111111011110101011011011111011101111 I
b11011110101011011011111011101111110111101010110110111110111011111101111010101101101111101110111111011110101011011011111011101111 ^
0-
0#
b1 [
1'
#870000
0'
#875000
0A
0V
b0 [
b1 .
b100 /
b10011 1
1'
#880000
0'
#885000
06
b1000000010000 $
b1000000010000 L
1V
bx "
bx >
bx R
b0 P
0<
bx I
bx ^
b11 H
b11 d
b0 G
b0 e
0D
1M
b1 Z
b100 F
b100 f
b1 N
b1 \
b1 c
1)
b10011 3
b1001111110001000101011010011111 *
b1001111110001000101011010011111 :
b1000000010000 (
b1000000010000 9
1'
#890000
0'
#895000
1%
b1 [
b11 Z
b11 .
b1 /
b10100 1
b1100 5
b10100 4
0)
1'
#900000
0'
#905000
1#
b11 [
1%
0A
16
b10000110000 $
b10000110000 L
1;
0V
b11011110101011011011111011101111110111101010110110111110111011111101111010101101101111101110111111011110101011011011111011101111 "
b11011110101011011011111011101111110111101010110110111110111011111101111010101101101111101110111111011110101011011011111011101111 >
b11011110101011011011111011101111110111101010110110111110111011111101111010101101101111101110111111011110101011011011111011101111 R
b1 P
b11011110101011011011111011101111110111101010110110111110111011111101111010101101101111101110111111011110101011011011111011101111 I
b11011110101011011011111011101111110111101010110110111110111011111101111010101101101111101110111111011110101011011011111011101111 ^
b1 H
b1 d
b100 G
b100 e
1D
0M
b11 Z
b1 F
b1 f
b11 N
b11 \
b11 c
1)
b101001 3
b100100101011100011001001001001 *
b100100101011100011001001001001 :
b10000110000 (
b10000110000 9
1'
#910000
0'
#915000
b1 2
b10101 4
0)
1'
#920000
0'
#925000
b10 2
1'
#930000
0'
#935000
b11 2
1'
#940000
0'
#945000
b100 2
1'
#950000
0'
#955000
1B
1A
b1 Z
b0 2
1-
1'
#960000
0'
#965000
0%
0B
b100 P
b0 Z
1M
0-
0#
b1 [
1'
#970000
0'
#975000
0A
1V
b0 [
b0 .
b10 /
b10101 1
1'
#980000
0'
#985000
b100000000000 $
b100000000000 L
1<
0V
b1 P
0;
b10 G
b10 e
0M
b1 Z
b10 F
b10 f
b0 N
b0 \
b0 c
1)
b110101 3
b11001011001000010010111110010110 *
b11001011001000010010111110010110 :
b100000000000 (
b100000000000 9
1'
#990000
0'
#995000
1A
1V
b1 [
b0 Z
b11 .
b10110 1
b1101 5
b10110 4
0)
1'
#1000000
0'
#1005000
b0 [
0%
0A
06
1V
b100000110000 $
b100000110000 L
0<
b100 P
b100 G
b100 e
1M
b1 Z
b11 N
b11 \
b11 c
1)
b111111 3
b111011100000100101101001110111 *
b111011100000100101101001110111 :
b100000110000 (
b100000110000 9
1'
#1010000
0'
#1015000
1%
b1 [
b11 Z
b0 .
b11 /
b10111 1
b1110 5
b10111 4
0)
1'
#1020000
0'
#1025000
1#
b11 [
b110000000000 $
b110000000000 L
0V
b1 P
b10 G
b10 e
0M
b11 Z
b11 F
b11 f
b0 N
b0 \
b0 c
1)
b111110 3
b10110110111001011000000101101101 *
b10110110111001011000000101101101 :
b110000000000 (
b110000000000 9
1'
#1030000
0'
#1035000
b1 2
b11000 4
0)
1'
#1040000
0'
#1045000
b10 2
1'
#1050000
0'
#1055000
b11 2
1'
#1060000
0'
#1065000
b100 2
1'
#1070000
0'
#1075000
1B
1A
b1 Z
b0 2
1-
1'
#1080000
0'
#1085000
0%
16
1A
1;
0V
0B
b10 P
b0 Z
b11 H
b11 d
1M
0-
0#
b1 [
1'
#1090000
0'
#1095000
0A
1V
b0 [
b1 .
b11000 1
1'
#1100000
0'
#1105000
b110000010000 $
b110000010000 L
bx "
bx >
bx R
b0 P
bx I
bx ^
b0 G
b0 e
0D
b1 Z
b1 N
b1 \
b1 c
1)
b11000 3
b11000010110110010010111110000101 *
b11000010110110010010111110000101 :
b110000010000 (
b110000010000 9
1'
#1110000
0'
#1115000
1A
0V
b1 [
b0 Z
b10 .
b11001 1
b1111 5
b11001 4
0)
1'
#1120000
0'
#1125000
0A
b0 [
0V
b110000100000 $
b110000100000 L
0;
1<
b11011110101011011011111011101111110111101010110110111110111011111101111010101101101111101110111111011110101011011011111011101111 "
b11011110101011011011111011101111110111101010110110111110111011111101111010101101101111101110111111011110101011011011111011101111 >
b11011110101011011011111011101111110111101010110110111110111011111101111010101101101111101110111111011110101011011011111011101111 R
b100 P
b11011110101011011011111011101111110111101010110110111110111011111101111010101101101111101110111111011110101011011011111011101111 I
b11011110101011011011111011101111110111101010110110111110111011111101111010101101101111101110111111011110101011011011111011101111 ^
b100 H
b100 d
b11 G
b11 e
1D
0M
b1 Z
b10 N
b10 \
b10 c
1)
b111011 3
b11111111100101010111000111111 *
b11111111100101010111000111111 :
b110000100000 (
b110000100000 9
1'
#1130000
0'
#1135000
1A
1V
b1 [
b0 Z
b1 .
b11010 1
b10000 5
b11010 4
0)
1'
#1140000
0'
#1145000
0A
b0 [
1V
b110000010000 $
b110000010000 L
1;
0<
bx "
bx >
bx R
b0 P
bx I
bx ^
b11 H
b11 d
b0 G
b0 e
0D
1M
b1 Z
b1 N
b1 \
b1 c
1)
b11111 3
b1000111000110100000110010001110 *
b1000111000110100000110010001110 :
b110000010000 (
b110000010000 9
1'
#1150000
0'
#1155000
1A
0V
b1 [
b0 Z
b0 .
b100 /
b11011 1
b10001 5
b11011 4
0)
1'
#1160000
0'
#1165000
b0 [
0%
0A
1V
06
b1000000000000 $
b1000000000000 L
b11011110101011011011111011101111110111101010110110111110111011111101111010101101101111101110111111011110101011011011111011101111 "
b11011110101011011011111011101111110111101010110110111110111011111101111010101101101111101110111111011110101011011011111011101111 >
b11011110101011011011111011101111110111101010110110111110111011111101111010101101101111101110111111011110101011011011111011101111 R
b10 P
0;
b11011110101011011011111011101111110111101010110110111110111011111101111010101101101111101110111111011110101011011011111011101111 I
b11011110101011011011111011101111110111101010110110111110111011111101111010101101101111101110111111011110101011011011111011101111 ^
b10 G
b10 e
1D
b1 Z
b100 F
b100 f
b0 N
b0 \
b0 c
1)
b100000 3
b10111001100101100001011101110011 *
b10111001100101100001011101110011 :
b1000000000000 (
b1000000000000 9
1'
#1170000
0'
#1175000
1%
b1 [
b11 Z
b1 .
b1 /
b11100 1
b10010 5
b11100 4
0)
1'
#1180000
0'
#1185000
1#
b11 [
b10000010000 $
b10000010000 L
bx "
bx >
bx R
b0 P
bx I
bx ^
b0 G
b0 e
0D
b11 Z
b1 F
b1 f
b1 N
b1 \
b1 c
1)
b1000000 3
b101111110110000101011001011111 *
b101111110110000101011001011111 :
b10000010000 (
b10000010000 9
1'
#1190000
0'
#1195000
b1 2
b11101 4
0)
1'
#1200000
0'
#1205000
b10 2
1'
#1210000
0'
#1215000
b11 2
1'
#1220000
0'
#1225000
b100 2
1'
#1230000
0'
#1235000
1C
1A
b1 Z
b0 2
1-
1'
#1240000
0'
#1245000
0%
16
1A
1<
1V
b11 P
0C
b11011110101011011011111011101111110111101010110110111110111011111101111010101101101111101110111111011110101011011011111011101111 "
b11011110101011011011111011101111110111101010110110111110111011111101111010101101101111101110111111011110101011011011111011101111 >
b11011110101011011011111011101111110111101010110110111110111011111101111010101101101111101110111111011110101011011011111011101111 R
b0 Z
1D
b1 G
b1 e
0M
b11011110101011011011111011101111110111101010110110111110111011111101111010101101101111101110111111011110101011011011111011101111 I
b11011110101011011011111011101111110111101010110110111110111011111101111010101101101111101110111111011110101011011011111011101111 ^
0-
0#
b1 [
1'
#1250000
0'
#1255000
0A
0V
b0 [
b100 /
b11101 1
1'
#1260000
0'
#1265000
06
b1000000010000 $
b1000000010000 L
0<
b1 Z
b100 F
b100 f
1)
b1000100 3
b1110011000010010001101011100110 *
b1110011000010010001101011100110 :
b1000000010000 (
b1000000010000 9
1'
#1270000
0'
#1275000
1%
b1 [
b11 Z
b11 /
b11110 1
b10011 5
b11110 4
0)
1'
#1280000
0'
#1285000
1#
b11 [
1%
0A
16
b110000010000 $
b110000010000 L
1;
b11 Z
b11 F
b11 f
1)
b10100 3
b1101101010100110110110011011010 *
b1101101010100110110110011011010 :
b110000010000 (
b110000010000 9
1'
#1290000
0'
#1295000
b1 2
b11111 4
0)
1'
#1300000
0'
#1305000
b10 2
1'
#1310000
0'
#1315000
b11 2
1'
#1320000
0'
#1325000
b100 2
1'
#1330000
0'
#1335000
1B
1A
b1 Z
b0 2
1-
1'
#1340000
0'
#1345000
0%
0B
b1 P
b0 Z
1M
0-
0#
b1 [
1'
#1350000
0'
#1355000
0A
1V
b0 [
b10 /
b11111 1
1'
#1360000
0'
#1365000
06
b100000010000 $
b100000010000 L
0;
b1 Z
b10 F
b10 f
1)
b1000000 3
b10111100111100010001100101111001 *
b10111100111100010001100101111001 :
b100000010000 (
b100000010000 9
1'
#1370000
0'
#1375000
1%
b1 [
b11 Z
b10 .
b100000 1
b10100 5
b100000 4
0)
1'
#1380000
0'
#1385000
1#
b11 [
b100000100000 $
b100000100000 L
0V
b100 P
b100 H
b100 d
b11 G
b11 e
0M
b11 Z
b10 N
b10 \
b10 c
1)
b110101 3
b11010101111101101010110110101011 *
b11010101111101101010110110101011 :
b100000100000 (
b100000100000 9
1'
#1390000
0'
#1395000
b1 2
b100001 4
0)
1'
#1400000
0'
#1405000
b10 2
1'
#1410000
0'
#1415000
b11 2
1'
#1420000
0'
#1425000
b100 2
1'
#1430000
0'
#1435000
1B
1A
b1 Z
b0 2
1-
1'
#1440000
0'
