cache_waves.vcd
$date
	Wed Jul 15 21:05:28 2026
$end
$version
	Icarus Verilog
$end
$timescale
	1ps
$end
$scope module tb_cache $end
$var wire 1 ! mem_wen $end
$var wire 128 " mem_wdata [127:0] $end
$var wire 1 # mem_ren $end
$var wire 32 $ mem_addr [31:0] $end
$var wire 1 % cpu_stall $end
$var wire 32 & cpu_rdata [31:0] $end
$var reg 1 ' clk $end
$var reg 32 ( cpu_addr [31:0] $end
$var reg 1 ) cpu_ren $end
$var reg 32 * cpu_wdata [31:0] $end
$var reg 1 + cpu_wen $end
$var reg 128 , mem_rdata [127:0] $end
$var reg 1 - mem_ready $end
$var reg 1 . rst_n $end
$var integer 32 / mem_wait_ctr [31:0] $end
$scope module dut $end
$var wire 1 0 array_clear_dirty $end
$var wire 1 1 array_set_dirty $end
$var wire 128 2 array_wdata [127:0] $end
$var wire 1 3 array_wen $end
$var wire 1 4 cache_hit $end
$var wire 1 ' clk $end
$var wire 32 5 cpu_addr [31:0] $end
$var wire 1 ) cpu_ren $end
$var wire 32 6 cpu_wdata [31:0] $end
$var wire 1 + cpu_wen $end
$var wire 128 7 mem_rdata [127:0] $end
$var wire 1 - mem_ready $end
$var wire 128 8 mem_wdata [127:0] $end
$var wire 1 . rst_n $end
$var wire 22 9 tag [21:0] $end
$var wire 4 : offset [3:0] $end
$var wire 1 ! mem_wen $end
$var wire 1 # mem_ren $end
$var wire 32 ; mem_addr [31:0] $end
$var wire 6 < index [5:0] $end
$var wire 1 % cpu_stall $end
$var wire 32 = cpu_rdata [31:0] $end
$var wire 1 > array_valid $end
$var wire 22 ? array_rtag [21:0] $end
$var wire 128 @ array_rdata [127:0] $end
$var wire 1 A array_dirty $end
$var parameter 32 B ADDR_WIDTH $end
$var parameter 32 C CPU_DATA_WIDTH $end
$var parameter 32 D MEM_DATA_WIDTH $end
$var reg 2 E next_state [1:0] $end
$var reg 2 F state [1:0] $end
$scope module my_data_array $end
$var wire 1 ' clk $end
$var wire 6 G index [5:0] $end
$var wire 128 H rdata [127:0] $end
$var wire 128 I wdata [127:0] $end
$var wire 1 3 wen $end
$var parameter 32 J DATA_WIDTH $end
$var parameter 32 K DEPTH $end
$var parameter 32 L INDEX_WIDTH $end
$upscope $end
$scope module my_tag_array $end
$var wire 1 0 clear_dirty $end
$var wire 1 ' clk $end
$var wire 1 A dirty $end
$var wire 6 M index [5:0] $end
$var wire 22 N rtag [21:0] $end
$var wire 1 1 set_dirty $end
$var wire 1 > valid $end
$var wire 1 3 wen $end
$var wire 22 O wtag [21:0] $end
$scope begin $ivl_for_loop0 $end
$var integer 32 P i [31:0] $end
$upscope $end
$upscope $end
$upscope $end
$upscope $end
$enddefinitions $end
$comment Show the parameter values. $end
$dumpall
b110 L
b1000000 K
b10000000 J
b10000000 D
b100000 C
b100000 B
$end
#0
$dumpvars
b1000000 P
bx O
bx N
bx M
bx I
bx H
bx G
b0 F
b0 E
xA
bx @
bx ?
x>
bx =
bx <
bx0000 ;
bx :
bx 9
bx 8
bx 7
bx 6
bx 5
x4
03
bx 2
01
00
b0 /
0.
x-
bx ,
0+
bx *
0)
bx (
0'
bx &
0%
bx0000 $
0#
bx "
0!
$end
#5000
0-
1'
#10000
0'
#15000
1'
1.
#20000
0'
#25000
b1000000000000 $
b1000000000000 ;
04
b0 ?
b0 N
0>
0A
b1 E
b100 9
b100 O
b0 <
b0 G
b0 M
b0 :
1)
b1000000000000 (
b1000000000000 5
1'
#30000
0'
#35000
1%
b1 F
b11 E
0)
1'
#40000
0'
#45000
1#
b11 F
1'
#50000
0'
#55000
b1 /
1+
b10011001100110011001100110011001 *
b10011001100110011001100110011001 6
1'
#60000
0'
#65000
b10 /
1'
#70000
0'
#75000
b11 /
1'
#80000
0'
#85000
b100 /
1'
#90000
0'
#95000
13
b1 E
b11011110101011011011111011101111110010101111111010111010101111100000000100100011010001010110011110001001101010111100110111101111 2
b11011110101011011011111011101111110010101111111010111010101111100000000100100011010001010110011110001001101010111100110111101111 I
b11011110101011011011111011101111110010101111111010111010101111100000000100100011010001010110011110001001101010111100110111101111 ,
b11011110101011011011111011101111110010101111111010111010101111100000000100100011010001010110011110001001101010111100110111101111 7
b0 /
1-
1'
#100000
0'
#105000
0%
11
14
b0 E
03
1>
b100 ?
b100 N
b10001001101010111100110111101111 &
b10001001101010111100110111101111 =
b11011110101011011011111011101111110010101111111010111010101111100000000100100011010001010110011110001001101010111100110111101111 "
b11011110101011011011111011101111110010101111111010111010101111100000000100100011010001010110011110001001101010111100110111101111 8
b11011110101011011011111011101111110010101111111010111010101111100000000100100011010001010110011110001001101010111100110111101111 @
b11011110101011011011111011101111110010101111111010111010101111100000000100100011010001010110011110001001101010111100110111101111 H
0-
0#
b1 F
1'
#110000
0'
#115000
1A
b0 F
01
b0 E
0+
1'
#120000
0'
#125000
1'
#130000
0'
#135000
b10000000000000 $
b10000000000000 ;
04
b1 E
b1000 9
b1000 O
1)
b10000000000000 (
b10000000000000 5
1'
#140000
0'
#145000
1%
b1 F
b10 E
0)
1'
#150000
0'
#155000
b1000000000000 $
b1000000000000 ;
1!
b10 F
1'
#160000
0'
#165000
b1 /
1'
#170000
0'
#175000
b10 /
1'
#180000
0'
#185000
b11 /
1'
#190000
0'
#195000
b100 /
1'
